^E:\PROJECTS\ARZALAR\BUILD\WINDOWS\FLUTTER\FLUTTER_WRAPPER_PLUGIN.DIR\DEBUG\CORE_IMPLEMENTATIONS.OBJ|E:\PROJECTS\ARZALAR\BUILD\WINDOWS\FLUTTER\FLUTTER_WRAPPER_PLUGIN.DIR\DEBUG\PLUGIN_REGISTRAR.OBJ|E:\PROJECTS\ARZALAR\BUILD\WINDOWS\FLUTTER\FLUTTER_WRAPPER_PLUGIN.DIR\DEBUG\STANDARD_CODEC.OBJ
E:\PROJECTS\ARZALAR\BUILD\WINDOWS\FLUTTER\FLUTTER_WRAPPER_PLUGIN.DIR\DEBUG\CORE_IMPLEMENTATIONS.OBJ
C:\WINDOWS\SYSTEM32\TZRES.DLL
E:\PROJECTS\ARZALAR\BUILD\WINDOWS\FLUTTER\FLUTTER_WRAPPER_PLUGIN.DIR\DEBUG\STANDARD_CODEC.OBJ
E:\PROJECTS\ARZALAR\BUILD\WINDOWS\FLUTTER\FLUTTER_WRAPPER_PLUGIN.DIR\DEBUG\PLUGIN_REGISTRAR.OBJ
C:\WINDOWS\GLOBALIZATION\SORTING\SORTDEFAULT.NLS
