^E:\PROJECTS\ARZALAR\BUILD\WINDOWS\FLUTTER\FLUTTER_WRAPPER_PLUGIN.DIR\DEBUG\CORE_IMPLEMENTATIONS.OBJ|E:\PROJECTS\ARZALAR\BUILD\WINDOWS\FLUTTER\FLUTTER_WRAPPER_PLUGIN.DIR\DEBUG\PLUGIN_REGISTRAR.OBJ|E:\PROJECTS\ARZALAR\BUILD\WINDOWS\FLUTTER\FLUTTER_WRAPPER_PLUGIN.DIR\DEBUG\STANDARD_CODEC.OBJ
/OUT:"E:\PROJECTS\ARZALAR\BUILD\WINDOWS\FLUTTER\DEBUG\FLUTTER_WRAPPER_PLUGIN.LIB" /NOLOGO /MACHINE:X64  /machine:x64 FLUTTER_WRAPPER_PLUGIN.DIR\DEBUG\CORE_IMPLEMENTATIONS.OBJ
FLUTTER_WRAPPER_PLUGIN.DIR\DEBUG\STANDARD_CODEC.OBJ
FLUTTER_WRAPPER_PLUGIN.DIR\DEBUG\PLUGIN_REGISTRAR.OBJ
