^E:\PROJECTS\ARZALAR\WINDOWS\RUNNER\CMAKELISTS.TXT
setlocal
"C:\Program Files (x86)\Microsoft Visual Studio\2019\Community\Common7\IDE\CommonExtensions\Microsoft\CMake\CMake\bin\cmake.exe" -SE:/Projects/arzalar/windows -BE:/Projects/arzalar/build/windows --check-stamp-file E:/Projects/arzalar/build/windows/runner/CMakeFiles/generate.stamp
if %errorlevel% neq 0 goto :cmEnd
:cmEnd
endlocal & call :cmErrorLevel %errorlevel% & goto :cmDone
:cmErrorLevel
exit /b %1
:cmDone
if %errorlevel% neq 0 goto :VCEnd
