^E:\PROJECTS\ARZALAR\BUILD\WINDOWS\CMAKEFILES\37146616477F05F8C28DAB2467E155F0\FLUTTER_WINDOWS.DLL.RULE
E:\PROJECTS\ARZALAR\WINDOWS\FLUTTER\EPHEMERAL\FLUTTER_WINDOWS.DLL
E:\PROJECTS\ARZALAR\WINDOWS\FLUTTER\EPHEMERAL\FLUTTER_EXPORT.H
E:\PROJECTS\ARZALAR\WINDOWS\FLUTTER\EPHEMERAL\FLUTTER_WINDOWS.H
E:\PROJECTS\ARZALAR\WINDOWS\FLUTTER\EPHEMERAL\FLUTTER_MESSENGER.H
E:\PROJECTS\ARZALAR\WINDOWS\FLUTTER\EPHEMERAL\FLUTTER_PLUGIN_REGISTRAR.H
E:\PROJECTS\ARZALAR\WINDOWS\FLUTTER\EPHEMERAL\FLUTTER_TEXTURE_REGISTRAR.H
E:\PROJECTS\ARZALAR\WINDOWS\FLUTTER\EPHEMERAL\CPP_CLIENT_WRAPPER\CORE_IMPLEMENTATIONS.CC
E:\PROJECTS\ARZALAR\WINDOWS\FLUTTER\EPHEMERAL\CPP_CLIENT_WRAPPER\STANDARD_CODEC.CC
E:\PROJECTS\ARZALAR\WINDOWS\FLUTTER\EPHEMERAL\CPP_CLIENT_WRAPPER\PLUGIN_REGISTRAR.CC
E:\PROJECTS\ARZALAR\WINDOWS\FLUTTER\EPHEMERAL\CPP_CLIENT_WRAPPER\FLUTTER_ENGINE.CC
E:\PROJECTS\ARZALAR\WINDOWS\FLUTTER\EPHEMERAL\CPP_CLIENT_WRAPPER\FLUTTER_VIEW_CONTROLLER.CC
E:\PROJECTS\ARZALAR\BUILD\WINDOWS\FLUTTER\_PHONY_
^E:\PROJECTS\ARZALAR\BUILD\WINDOWS\CMAKEFILES\59816BDEE4CE5A11E2BDCE59908564A5\FLUTTER_ASSEMBLE.RULE
E:\PROJECTS\ARZALAR\BUILD\WINDOWS\FLUTTER\CMAKEFILES\FLUTTER_ASSEMBLE
^E:\PROJECTS\ARZALAR\WINDOWS\FLUTTER\CMAKELISTS.TXT
E:\PROJECTS\ARZALAR\BUILD\WINDOWS\FLUTTER\CMAKEFILES\GENERATE.STAMP
